GROUP = L1_METADATA_FILE
  GROUP = METADATA_FILE_INFO
    ORIGIN = "Image courtesy of the U.S. Geological Survey"
    REQUEST_ID = "0101112059612_00002"
    PRODUCT_CREATION_TIME = 2011-12-06T11:07:33Z
    STATION_ID = "EDC"
    LANDSAT7_XBAND = "2"
    GROUND_STATION = "EDC"
    LPS_PROCESSOR_NUMBER = 9
    DATEHOUR_CONTACT_PERIOD = "0021215"
    SUBINTERVAL_NUMBER = "01"
  END_GROUP = METADATA_FILE_INFO
  GROUP = PRODUCT_METADATA
    PRODUCT_TYPE = "L1T"
    ELEVATION_SOURCE = "GLS2000"
    PROCESSING_SOFTWARE = "LPGS_11.5.1"
    EPHEMERIS_TYPE = "DEFINITIVE"
    SPACECRAFT_ID = "Landsat7"
    SENSOR_ID = "ETM+"
    SENSOR_MODE = "SAM"
    ACQUISITION_DATE = 2000-07-30
    SCENE_CENTER_SCAN_TIME = 15:35:14.6291983Z
    WRS_PATH = 15
    STARTING_ROW = 27
    ENDING_ROW = 27
    BAND_COMBINATION = "123456678"
    PRODUCT_UL_CORNER_LAT = 48.4358302
    PRODUCT_UL_CORNER_LON = -75.5705409
    PRODUCT_UR_CORNER_LAT = 48.4065680
    PRODUCT_UR_CORNER_LON = -72.3434008
    PRODUCT_LL_CORNER_LAT = 46.4761497
    PRODUCT_LL_CORNER_LON = -75.5497270
    PRODUCT_LR_CORNER_LAT = 46.4488160
    PRODUCT_LR_CORNER_LON = -72.4401908
    PRODUCT_UL_CORNER_MAPX = 457800.000
    PRODUCT_UL_CORNER_MAPY = 5364900.000
    PRODUCT_UR_CORNER_MAPX = 696600.000
    PRODUCT_UR_CORNER_MAPY = 5364900.000
    PRODUCT_LL_CORNER_MAPX = 457800.000
    PRODUCT_LL_CORNER_MAPY = 5147100.000
    PRODUCT_LR_CORNER_MAPX = 696600.000
    PRODUCT_LR_CORNER_MAPY = 5147100.000
    PRODUCT_SAMPLES_PAN = 15921
    PRODUCT_LINES_PAN = 14521
    PRODUCT_SAMPLES_REF = 7961
    PRODUCT_LINES_REF = 7261
    PRODUCT_SAMPLES_THM = 7961
    PRODUCT_LINES_THM = 7261
    BAND1_FILE_NAME = "L71015027_02720000730_B10.tif"
    BAND2_FILE_NAME = "L71015027_02720000730_B20.tif"
    BAND3_FILE_NAME = "L71015027_02720000730_B30.tif"
    BAND4_FILE_NAME = "L71015027_02720000730_B40.tif"
    BAND5_FILE_NAME = "L71015027_02720000730_B50.tif"
    BAND61_FILE_NAME = "L71015027_02720000730_B61.tif"
    BAND62_FILE_NAME = "L72015027_02720000730_B62.tif"
    BAND7_FILE_NAME = "L72015027_02720000730_B70.tif"
    BAND8_FILE_NAME = "L72015027_02720000730_B80.tif"
    GCP_FILE_NAME = "L71015027_02720000730_GCP.txt"
    METADATA_L1_FILE_NAME = "L71015027_02720000730_MTL.txt"
    CPF_FILE_NAME = "L7CPF20000719_20000930_13"
  END_GROUP = PRODUCT_METADATA
  GROUP = MIN_MAX_RADIANCE
    LMAX_BAND1 = 191.600
    LMIN_BAND1 = -6.200
    LMAX_BAND2 = 196.500
    LMIN_BAND2 = -6.400
    LMAX_BAND3 = 152.900
    LMIN_BAND3 = -5.000
    LMAX_BAND4 = 241.100
    LMIN_BAND4 = -5.100
    LMAX_BAND5 = 31.060
    LMIN_BAND5 = -1.000
    LMAX_BAND61 = 17.040
    LMIN_BAND61 = 0.000
    LMAX_BAND62 = 12.650
    LMIN_BAND62 = 3.200
    LMAX_BAND7 = 10.800
    LMIN_BAND7 = -0.350
    LMAX_BAND8 = 243.100
    LMIN_BAND8 = -4.700
  END_GROUP = MIN_MAX_RADIANCE
  GROUP = MIN_MAX_PIXEL_VALUE
    QCALMAX_BAND1 = 255.0
    QCALMIN_BAND1 = 1.0
    QCALMAX_BAND2 = 255.0
    QCALMIN_BAND2 = 1.0
    QCALMAX_BAND3 = 255.0
    QCALMIN_BAND3 = 1.0
    QCALMAX_BAND4 = 255.0
    QCALMIN_BAND4 = 1.0
    QCALMAX_BAND5 = 255.0
    QCALMIN_BAND5 = 1.0
    QCALMAX_BAND61 = 255.0
    QCALMIN_BAND61 = 1.0
    QCALMAX_BAND62 = 255.0
    QCALMIN_BAND62 = 1.0
    QCALMAX_BAND7 = 255.0
    QCALMIN_BAND7 = 1.0
    QCALMAX_BAND8 = 255.0
    QCALMIN_BAND8 = 1.0
  END_GROUP = MIN_MAX_PIXEL_VALUE
  GROUP = PRODUCT_PARAMETERS
    CORRECTION_METHOD_GAIN_BAND1 = "CPF"
    CORRECTION_METHOD_GAIN_BAND2 = "CPF"
    CORRECTION_METHOD_GAIN_BAND3 = "CPF"
    CORRECTION_METHOD_GAIN_BAND4 = "CPF"
    CORRECTION_METHOD_GAIN_BAND5 = "CPF"
    CORRECTION_METHOD_GAIN_BAND61 = "CPF"
    CORRECTION_METHOD_GAIN_BAND62 = "CPF"
    CORRECTION_METHOD_GAIN_BAND7 = "CPF"
    CORRECTION_METHOD_GAIN_BAND8 = "CPF"
    CORRECTION_METHOD_BIAS = "IC"
    BAND1_GAIN = "H"
    BAND2_GAIN = "H"
    BAND3_GAIN = "H"
    BAND4_GAIN = "L"
    BAND5_GAIN = "H"
    BAND6_GAIN1 = "L"
    BAND6_GAIN2 = "H"
    BAND7_GAIN = "H"
    BAND8_GAIN = "L"
    BAND1_GAIN_CHANGE = "0"
    BAND2_GAIN_CHANGE = "0"
    BAND3_GAIN_CHANGE = "0"
    BAND4_GAIN_CHANGE = "0"
    BAND5_GAIN_CHANGE = "0"
    BAND6_GAIN_CHANGE1 = "0"
    BAND6_GAIN_CHANGE2 = "0"
    BAND7_GAIN_CHANGE = "0"
    BAND8_GAIN_CHANGE = "0"
    BAND1_SL_GAIN_CHANGE = 0
    BAND2_SL_GAIN_CHANGE = 0
    BAND3_SL_GAIN_CHANGE = 0
    BAND4_SL_GAIN_CHANGE = 0
    BAND5_SL_GAIN_CHANGE = 0
    BAND6_SL_GAIN_CHANGE1 = 0
    BAND6_SL_GAIN_CHANGE2 = 0
    BAND7_SL_GAIN_CHANGE = 0
    BAND8_SL_GAIN_CHANGE = 0
    SUN_AZIMUTH = 141.1266633
    SUN_ELEVATION = 55.8728451
    OUTPUT_FORMAT = "GEOTIFF"
  END_GROUP = PRODUCT_PARAMETERS
  GROUP = CORRECTIONS_APPLIED
    STRIPING_BAND1 = "NONE"
    STRIPING_BAND2 = "NONE"
    STRIPING_BAND3 = "NONE"
    STRIPING_BAND4 = "NONE"
    STRIPING_BAND5 = "NONE"
    STRIPING_BAND61 = "NONE"
    STRIPING_BAND62 = "NONE"
    STRIPING_BAND7 = "NONE"
    STRIPING_BAND8 = "NONE"
    BANDING = "N"
    COHERENT_NOISE = "Y"
    MEMORY_EFFECT = "N"
    SCAN_CORRELATED_SHIFT = "N"
    INOPERABLE_DETECTORS = "N"
    DROPPED_LINES = "N"
  END_GROUP = CORRECTIONS_APPLIED
  GROUP = PROJECTION_PARAMETERS
    REFERENCE_DATUM = "WGS84"
    REFERENCE_ELLIPSOID = "WGS84"
    GRID_CELL_SIZE_PAN = 15.000
    GRID_CELL_SIZE_THM = 30.000
    GRID_CELL_SIZE_REF = 30.000
    ORIENTATION = "NUP"
    RESAMPLING_OPTION = "CC"
    MAP_PROJECTION = "UTM"
  END_GROUP = PROJECTION_PARAMETERS
  GROUP = UTM_PARAMETERS
    ZONE_NUMBER = 18
  END_GROUP = UTM_PARAMETERS
END_GROUP = L1_METADATA_FILE
END
